{
    "_nodes": {
        "failed": 0,
        "successful": 1,
        "total": 1
    },
    "cluster_name": "elasticsearch",
    "cluster_uuid": "x1JG6g9PRHy6ClCOO2-C4g",
    "indices": {
        "completion": {
            "size_in_bytes": 0
        },
        "count": 3,
        "docs": {
            "count": 36,
            "deleted": 0
        },
        "fielddata": {
            "evictions": 0,
            "memory_size_in_bytes": 0
        },
        "query_cache": {
            "cache_count": 0,
            "cache_size": 0,
            "evictions": 0,
            "hit_count": 0,
            "memory_size_in_bytes": 0,
            "miss_count": 0,
            "total_count": 0
        },
        "segments": {
            "count": 3,
            "doc_values_memory_in_bytes": 204,
            "file_sizes": {},
            "fixed_bit_set_memory_in_bytes": 0,
            "index_writer_memory_in_bytes": 0,
            "max_unsafe_auto_id_timestamp": -1,
            "memory_in_bytes": 4967,
            "norms_memory_in_bytes": 320,
            "points_memory_in_bytes": 3,
            "stored_fields_memory_in_bytes": 936,
            "term_vectors_memory_in_bytes": 0,
            "terms_memory_in_bytes": 3504,
            "version_map_memory_in_bytes": 0
        },
        "shards": {
            "index": {
                "primaries": {
                    "avg": 1.0,
                    "max": 1,
                    "min": 1
                },
                "replication": {
                    "avg": 0.0,
                    "max": 0.0,
                    "min": 0.0
                },
                "shards": {
                    "avg": 1.0,
                    "max": 1,
                    "min": 1
                }
            },
            "primaries": 3,
            "replication": 0.0,
            "total": 3
        },
        "store": {
            "size_in_bytes": 17835
        }
    },
    "nodes": {
        "count": {
            "coordinating_only": 0,
            "data": 1,
            "ingest": 1,
            "master": 1,
            "total": 1,
            "voting_only": 0
        },
        "discovery_types": {
            "single-node": 1
        },
        "fs": {
            "available_in_bytes": 17274388480,
            "free_in_bytes": 17274388480,
            "total_in_bytes": 23606595584
        },
        "jvm": {
            "max_uptime_in_millis": 4180243081,
            "mem": {
                "heap_max_in_bytes": 1065025536,
                "heap_used_in_bytes": 121571328
            },
            "threads": 36,
            "versions": [
                {
                    "bundled_jdk": true,
                    "count": 1,
                    "using_bundled_jdk": true,
                    "version": "12.0.2",
                    "vm_name": "OpenJDK 64-Bit Server VM",
                    "vm_vendor": "Oracle Corporation",
                    "vm_version": "12.0.2+10"
                }
            ]
        },
        "network_types": {
            "http_types": {
                "security4": 1
            },
            "transport_types": {
                "security4": 1
            }
        },
        "os": {
            "allocated_processors": 12,
            "available_processors": 12,
            "mem": {
                "free_in_bytes": 105410560,
                "free_percent": 5,
                "total_in_bytes": 1927241728,
                "used_in_bytes": 1821831168,
                "used_percent": 95
            },
            "names": [
                {
                    "count": 1,
                    "name": "Linux"
                }
            ],
            "pretty_names": [
                {
                    "count": 1,
                    "pretty_name": "CentOS Linux 7 (Core)"
                }
            ]
        },
        "packaging_types": [
            {
                "count": 1,
                "flavor": "default",
                "type": "docker"
            }
        ],
        "plugins": [],
        "process": {
            "cpu": {
                "percent": 0
            },
            "open_file_descriptors": {
                "avg": 201,
                "max": 201,
                "min": 201
            }
        },
        "versions": [
            "7.3.1"
        ]
    },
    "status": "yellow",
    "timestamp": 1588420104
}
